Lab 1/inputVector.vcd
$date
	04/02/20 14:58:40
$end
$version
	RIMS 2.8
$end
$timescale
	1 ms
$end
$scope module RIMS $end
$var wire 1 *TMR TIMER_ISR $end
$var wire 1 *A0 A0 $end
$var wire 1 *A1 A1 $end
$var wire 1 *A2 A2 $end
$var wire 1 *A3 A3 $end
$var wire 1 *A4 A4 $end
$var wire 1 *A5 A5 $end
$var wire 1 *A6 A6 $end
$var wire 1 *A7 A7 $end
$var wire 1 *B0 B0 $end
$var wire 1 *B1 B1 $end
$var wire 1 *B2 B2 $end
$var wire 1 *B3 B3 $end
$var wire 1 *B4 B4 $end
$var wire 1 *B5 B5 $end
$var wire 1 *B6 B6 $end
$var wire 1 *B7 B7 $end
$upscope $end
$enddefinitions $end

#0
$dumpvars
b0 *TMR
b0 *A0
b0 *A1
b0 *A2
b0 *A3
b0 *A4
b0 *A5
b0 *A6
b0 *A7
b0 *B0
b0 *B1
b0 *B2
b0 *B3
b0 *B4
b0 *B5
b0 *B6
b0 *B7
$end
#4
b1 *B0
#6
b1 *B0
#8
b1 *B0
#10
b1 *B0
#12
b1 *B0
#14
b1 *B0
#16
b1 *B0
#18
b1 *B0
#20
b1 *B0
#22
b1 *B0
#24
b1 *B0
#26
b1 *B0
#28
b1 *B0
#30
b1 *B0
#32
b1 *B0
#34
b1 *B0
#36
b1 *B0
#38
b1 *B0
#40
b1 *B0
#42
b1 *B0
#44
b1 *B0
#46
b1 *B0
#48
b1 *B0
#50
b1 *B0
#52
b1 *B0
#54
b1 *B0
#56
b1 *B0
#58
b1 *B0
#60
b1 *B0
#62
b1 *B0
#64
b1 *B0
#66
b1 *B0
#68
b1 *B0
#70
b1 *B0
#72
b1 *B0
#74
b1 *B0
#76
b1 *B0
#78
b1 *B0
#80
b1 *B0
#82
b1 *B0
#84
b1 *B0
#86
b1 *B0
#88
b1 *B0
#90
b1 *B0
#92
b1 *B0
#94
b1 *B0
#96
b1 *B0
#98
b1 *B0
#100
b0 *A0
#100
b0 *A1
#100
b0 *A6
#100
b0 *A7
#100
b0 *A0
#100
b0 *A1
#100
b0 *A6
#100
b0 *A7
#100
b1 *B0
#102
b0 *B0
#103
b0 *B0
#104
b0 *B0
#106
b0 *B0
#107
b0 *B0
#109
b0 *B0
#110
b0 *B0
#111
b0 *B0
#113
b0 *B0
#114
b0 *B0
#116
b0 *B0
#117
b0 *B0
#118
b0 *B0
#120
b0 *B0
#121
b0 *B0
#123
b0 *B0
#124
b0 *B0
#125
b0 *B0
#127
b0 *B0
#128
b0 *B0
#130
b0 *B0
#131
b0 *B0
#132
b0 *B0
#134
b0 *B0
#135
b0 *B0
#137
b0 *B0
#138
b0 *B0
#139
b0 *B0
#141
b0 *B0
#142
b0 *B0
#144
b0 *B0
#145
b0 *B0
#146
b0 *B0
#148
b0 *B0
#149
b0 *B0
#151
b0 *B0
#152
b0 *B0
#153
b0 *B0
#155
b0 *B0
#156
b0 *B0
#158
b0 *B0
#159
b0 *B0
#160
b0 *B0
#162
b0 *B0
#163
b0 *B0
#165
b0 *B0
#166
b0 *B0
#167
b0 *B0
#169
b0 *B0
#170
b0 *B0
#172
b0 *B0
#173
b0 *B0
#174
b0 *B0
#176
b0 *B0
#177
b0 *B0
#179
b0 *B0
#180
b0 *B0
#181
b0 *B0
#183
b0 *B0
#184
b0 *B0
#186
b0 *B0
#187
b0 *B0
#188
b0 *B0
#190
b0 *B0
#191
b0 *B0
#193
b0 *B0
#194
b0 *B0
#195
b0 *B0
#197
b0 *B0
#198
b0 *B0
#200
b0 *B0
#201
b0 *B0
#202
b0 *B0
#204
b0 *B0
#205
b0 *B0
#207
b0 *B0
#208
b0 *B0
#209
b0 *B0
#211
b0 *B0
#212
b0 *B0
#214
b0 *B0
#215
b0 *B0
#216
b0 *B0
#218
b0 *B0
#219
b0 *B0
#221
b0 *B0
#222
b0 *B0
#223
b0 *B0
#225
b0 *B0
#226
b0 *B0
#228
b0 *B0
#229
b0 *B0
#230
b0 *B0
#232
b0 *B0
#233
b0 *B0
#235
b0 *B0
#236
b0 *B0
#237
b0 *B0
#239
b0 *B0
#240
b0 *B0
#242
b0 *B0
#243
b0 *B0
#244
b0 *B0
#246
b0 *B0
#247
b0 *B0
#249
b0 *B0
#250
b0 *B0
#251
b0 *B0
#253
b0 *B0
#254
b0 *B0
#256
b0 *B0
#257
b0 *B0
#258
b0 *B0
#260
b0 *B0
#261
b0 *B0
#263
b0 *B0
#264
b0 *B0
#265
b0 *B0
#267
b0 *B0
#268
b0 *B0
#270
b0 *B0
#271
b0 *B0
#272
b0 *B0
#274
b0 *B0
#275
b0 *B0
#277
b0 *B0
#278
b0 *B0
#279
b0 *B0
#281
b0 *B0
#282
b0 *B0
#284
b0 *B0
#285
b0 *B0
#286
b0 *B0
#288
b0 *B0
#289
b0 *B0
#291
b0 *B0
#292
b0 *B0
#293
b0 *B0
#295
b0 *B0
#296
b0 *B0
#298
b0 *B0
#299
b0 *B0
#300
b0 *B0
#302
b0 *B0
#303
b0 *B0
#305
b0 *B0
#306
b0 *B0
#307
b0 *B0
#309
b0 *B0
#310
b0 *B0
#312
b0 *B0
#313
b0 *B0
#314
b0 *B0
#316
b0 *B0
#317
b0 *B0
#319
b0 *B0
#320
b0 *B0
#321
b0 *B0
#323
b0 *B0
#324
b0 *B0
#326
b0 *B0
#327
b0 *B0
#328
b0 *B0
#330
b0 *B0
#331
b0 *B0
#333
b0 *B0
#334
b0 *B0
#335
b0 *B0
#337
b0 *B0
#338
b0 *B0
#340
b0 *B0
#341
b0 *B0
#342
b0 *B0
#344
b0 *B0
#345
b0 *B0
#347
b0 *B0
#348
b0 *B0
#349
b0 *B0
#351
b0 *B0
#352
b0 *B0
#354
b0 *B0
#355
b0 *B0
#356
b0 *B0
#358
b0 *B0
#359
b0 *B0
#361
b0 *B0
#362
b0 *B0
#363
b0 *B0
#365
b0 *B0
#366
b0 *B0
#368
b0 *B0
#369
b0 *B0
#370
b0 *B0
#372
b0 *B0
#373
b0 *B0
#375
b0 *B0
#376
b0 *B0
#377
b0 *B0
#379
b0 *B0
#380
b0 *B0
#382
b0 *B0
#383
b0 *B0
#384
b0 *B0
#386
b0 *B0
#387
b0 *B0
#389
b0 *B0
#390
b0 *B0
#391
b0 *B0
#393
b0 *B0
#394
b0 *B0
#396
b0 *B0
#397
b0 *B0
#398
b0 *B0
#400
b0 *B0
#401
b0 *B0
#403
b0 *B0
#404
b0 *B0
#405
b0 *B0
#407
b0 *B0
#408
b0 *B0
#410
b0 *B0
#411
b0 *B0
#412
b0 *B0
#414
b0 *B0
#415
b0 *B0
#417
b0 *B0
#418
b0 *B0
#419
b0 *B0
#421
b0 *B0
#422
b0 *B0
#424
b0 *B0
#425
b0 *B0
#426
b0 *B0
#428
b0 *B0
#429
b0 *B0
#431
b0 *B0
#432
b0 *B0
#433
b0 *B0
#435
b0 *B0
#436
b0 *B0
#438
b0 *B0
#439
b0 *B0
#440
b0 *B0
#442
b0 *B0
#443
b0 *B0
#445
b0 *B0
#446
b0 *B0
#447
b0 *B0
#449
b0 *B0
#450
b0 *B0
#452
b0 *B0
#453
b0 *B0
#454
b0 *B0
#456
b0 *B0
#457
b0 *B0
#459
b0 *B0
#460
b0 *B0
#461
b0 *B0
#463
b0 *B0
#464
b0 *B0
#466
b0 *B0
#467
b0 *B0
#468
b0 *B0
#470
b0 *B0
#471
b0 *B0
#473
b0 *B0
#474
b0 *B0
#475
b0 *B0
#477
b0 *B0
#478
b0 *B0
#480
b0 *B0
#481
b0 *B0
#482
b0 *B0
#484
b0 *B0
#485
b0 *B0
#487
b0 *B0
#488
b0 *B0
#489
b0 *B0
#491
b0 *B0
#492
b0 *B0
#494
b0 *B0
#495
b0 *B0
#496
b0 *B0
#498
b0 *B0
#499
b0 *B0
#501
b0 *B0
#502
b0 *B0
#503
b0 *B0
#505
b0 *B0
#506
b0 *B0
#508
b0 *B0
#509
b0 *B0
#510
b0 *B0
#512
b0 *B0
#513
b0 *B0
#515
b0 *B0
#516
b0 *B0
#517
b0 *B0
#519
b0 *B0
#520
b0 *B0
#522
b0 *B0
#523
b0 *B0
#524
b0 *B0
#526
b0 *B0
#527
b0 *B0
#529
b0 *B0
#530
b0 *B0
#531
b0 *B0
#533
b0 *B0
#534
b0 *B0
#536
b0 *B0
#537
b0 *B0
#538
b0 *B0
#540
b0 *B0
#541
b0 *B0
#543
b0 *B0
#544
b0 *B0
#545
b0 *B0
#547
b0 *B0
#548
b0 *B0
#550
b0 *B0
#551
b0 *B0
#552
b0 *B0
#554
b0 *B0
#555
b0 *B0
#557
b0 *B0
#558
b0 *B0
#559
b0 *B0
#561
b0 *B0
#562
b0 *B0
#564
b0 *B0
#565
b0 *B0
#566
b0 *B0
#568
b0 *B0
#569
b0 *B0
#571
b0 *B0
#572
b0 *B0
#573
b0 *B0
#575
b0 *B0
#576
b0 *B0
#578
b0 *B0
#579
b0 *B0
#580
b0 *B0
#582
b0 *B0
#583
b0 *B0
#585
b0 *B0
#586
b0 *B0
#587
b0 *B0
#589
b0 *B0
#590
b0 *B0
#592
b0 *B0
#593
b0 *B0
#594
b0 *B0
#596
b0 *B0
#597
b0 *B0
#599
b0 *B0
#600
b0 *B0
#601
b0 *B0
#603
b0 *B0
#604
b0 *B0
#606
b0 *B0
#607
b0 *B0
#608
b0 *B0
#610
b0 *B0
#611
b0 *B0
#613
b0 *B0
#614
b0 *B0
#615
b0 *B0
#617
b0 *B0
#618
b0 *B0
#620
b0 *B0
#621
b0 *B0
#622
b0 *B0
#624
b0 *B0
#625
b0 *B0
#627
b0 *B0
#628
b0 *B0
#629
b0 *B0
#631
b0 *B0
#632
b0 *B0
#634
b0 *B0
#635
b0 *B0
#636
b0 *B0
#638
b0 *B0
#639
b0 *B0
#641
b0 *B0
#642
b0 *B0
#643
b0 *B0
#645
b0 *B0
#646
b0 *B0
#648
b0 *B0
#649
b0 *B0
#650
b0 *B0
#652
b0 *B0
#653
b0 *B0
#655
b0 *B0
#656
b0 *B0
#657
b0 *B0
#659
b0 *B0
#660
b0 *B0
#662
b0 *B0
#663
b0 *B0
#664
b0 *B0
#666
b0 *B0
#667
b0 *B0
#669
b0 *B0
#670
b0 *B0
#671
b0 *B0
#673
b0 *B0
#674
b0 *B0
#676
b0 *B0
#677
b0 *B0
#678
b0 *B0
#680
b0 *B0
#681
b0 *B0
#683
b0 *B0
#684
b0 *B0
#685
b0 *B0
#687
b0 *B0
#688
b0 *B0
#690
b0 *B0
#691
b0 *B0
#692
b0 *B0
#694
b0 *B0
#695
b0 *B0
#697
b0 *B0
#698
b0 *B0
#699
b0 *B0
#701
b0 *B0
#702
b0 *B0
#704
b0 *B0
#705
b0 *B0
#706
b0 *B0
#708
b0 *B0
#709
b0 *B0
#711
b0 *B0
#712
b0 *B0
#713
b0 *B0
#715
b0 *B0
#716
b0 *B0
#718
b0 *B0
#719
b0 *B0
#720
b0 *B0
#722
b0 *B0
#723
b0 *B0
#725
b0 *B0
#726
b0 *B0
#727
b0 *B0
#729
b0 *B0
#730
b0 *B0
#732
b0 *B0
#733
b0 *B0
#734
b0 *B0
#736
b0 *B0
#737
b0 *B0
#739
b0 *B0
#740
b0 *B0
#741
b0 *B0
#743
b0 *B0
#744
b0 *B0
#746
b0 *B0
#747
b0 *B0
#748
b0 *B0
#750
b0 *B0
#751
b0 *B0
#753
b0 *B0
#754
b0 *B0
#755
b0 *B0
#757
b0 *B0
#758
b0 *B0
#760
b0 *B0
#761
b0 *B0
#762
b0 *B0
#764
b0 *B0
#765
b0 *B0
#767
b0 *B0
#768
b0 *B0
#769
b0 *B0
#771
b0 *B0
#772
b0 *B0
#774
b0 *B0
#775
b0 *B0
#776
b0 *B0
#778
b0 *B0
#779
b0 *B0
#781
b0 *B0
#782
b0 *B0
#783
b0 *B0
#785
b0 *B0
#786
b0 *B0
#788
b0 *B0
#789
b0 *B0
#790
b0 *B0
#792
b0 *B0
#793
b0 *B0
#795
b0 *B0
#796
b0 *B0
#797
b0 *B0
#799
b0 *B0
#800
b0 *B0
#802
b0 *B0
#803
b0 *B0
#804
b0 *B0
#806
b0 *B0
#807
b0 *B0
#809
b0 *B0
#810
b0 *B0
#811
b0 *B0
#813
b0 *B0
#814
b0 *B0
#816
b0 *B0
#817
b0 *B0
#818
b0 *B0
#820
b0 *B0
#821
b0 *B0
#823
b0 *B0
#824
b0 *B0
#825
b0 *B0
#827
b0 *B0
#828
b0 *B0
#830
b0 *B0
#831
b0 *B0
#832
b0 *B0
#834
b0 *B0
#835
b0 *B0
#837
b0 *B0
#838
b0 *B0
#839
b0 *B0
#841
b0 *B0
#842
b0 *B0
#844
b0 *B0
#845
b0 *B0
#846
b0 *B0
#848
b0 *B0
#849
b0 *B0
#851
b0 *B0
#852
b0 *B0
#853
b0 *B0
#855
b0 *B0
#856
b0 *B0
#858
b0 *B0
#859
b0 *B0
#860
b0 *B0
#862
b0 *B0
#863
b0 *B0
#865
b0 *B0
#866
b0 *B0
#867
b0 *B0
#869
b0 *B0
#870
b0 *B0
#872
b0 *B0
#873
b0 *B0
#874
b0 *B0
#876
b0 *B0
#877
b0 *B0
#879
b0 *B0
#880
b0 *B0
#881
b0 *B0
#883
b0 *B0
#884
b0 *B0
#886
b0 *B0
#887
b0 *B0
#888
b0 *B0
#890
b0 *B0
#891
b0 *B0
#893
b0 *B0
#894
b0 *B0
#895
b0 *B0
#897
b0 *B0
#898
b0 *B0
#900
b0 *B0
#901
b0 *B0
#902
b0 *B0
#904
b0 *B0
#905
b0 *B0
#907
b0 *B0
#908
b0 *B0
#909
b0 *B0
#911
b0 *B0
#912
b0 *B0
#914
b0 *B0
#915
b0 *B0
#916
b0 *B0
#918
b0 *B0
#919
b0 *B0
#921
b0 *B0
#922
b0 *B0
#923
b0 *B0
#925
b0 *B0
#926
b0 *B0
#928
b0 *B0
#929
b0 *B0
#930
b0 *B0
#932
b0 *B0
#933
b0 *B0
#935
b0 *B0
#936
b0 *B0
#937
b0 *B0
#939
b0 *B0
#940
b0 *B0
#942
b0 *B0
#943
b0 *B0
#944
b0 *B0
#946
b0 *B0
#947
b0 *B0
#949
b0 *B0
#950
b0 *B0
#951
b0 *B0
#953
b0 *B0
#954
b0 *B0
#956
b0 *B0
#957
b0 *B0
#958
b0 *B0
#960
b0 *B0
#961
b0 *B0
#963
b0 *B0
#964
b0 *B0
#965
b0 *B0
#967
b0 *B0
#968
b0 *B0
#970
b0 *B0
#971
b0 *B0
#972
b0 *B0
#974
b0 *B0
#975
b0 *B0
#977
b0 *B0
#978
b0 *B0
#979
b0 *B0
#981
b0 *B0
#982
b0 *B0
#984
b0 *B0
#985
b0 *B0
#986
b0 *B0
#988
b0 *B0
#989
b0 *B0
#991
b0 *B0
#992
b0 *B0
#993
b0 *B0
#995
b0 *B0
#996
b0 *B0
#998
b0 *B0
#999
b0 *B0
#1000
b0 *B0
#1002
b0 *B0
#1003
b0 *B0
#1005
b0 *B0
#1006
b0 *B0
#1007
b0 *B0
#1009
b0 *B0
#1010
b0 *B0
#1012
b0 *B0
#1013
b0 *B0
#1014
b0 *B0
#1016
b0 *B0
#1017
b0 *B0
#1019
b0 *B0
#1020
b0 *B0
#1021
b0 *B0
#1023
b0 *B0
#1024
b0 *B0
#1026
b0 *B0
#1027
b0 *B0
#1028
b0 *B0
#1030
b0 *B0
#1031
b0 *B0
#1033
b0 *B0
#1034
b0 *B0
#1035
b0 *B0
#1037
b0 *B0
#1038
b0 *B0
#1040
b0 *B0
#1041
b0 *B0
#1042
b0 *B0
#1044
b0 *B0
#1045
b0 *B0
#1047
b0 *B0
#1048
b0 *B0
#1049
b0 *B0
#1051
b0 *B0
#1052
b0 *B0
#1054
b0 *B0
#1055
b0 *B0
#1056
b0 *B0
#1058
b0 *B0
#1059
b0 *B0
#1061
b0 *B0
#1062
b0 *B0
#1063
b0 *B0
#1065
b0 *B0
#1066
b0 *B0
#1068
b0 *B0
#1069
b0 *B0
#1070
b0 *B0
#1072
b0 *B0
#1073
b0 *B0
#1075
b0 *B0
#1076
b0 *B0
#1077
b0 *B0
#1079
b0 *B0
#1080
b0 *B0
#1082
b0 *B0
#1083
b0 *B0
#1084
b0 *B0
#1086
b0 *B0
#1087
b0 *B0
#1089
b0 *B0
#1090
b0 *B0
#1091
b0 *B0
#1093
b0 *B0
#1094
b0 *B0
#1096
b0 *B0
#1097
b0 *B0
#1098
b0 *B0
#1100
b0 *B0
#1101
b0 *B0
#1103
b0 *B0
#1104
b0 *B0
#1105
b0 *B0
#1107
b0 *B0
#1108
b0 *B0
#1110
b0 *B0
#1111
b0 *B0
#1112
b0 *B0
#1114
b0 *B0
#1115
b0 *B0
#1117
b0 *B0
#1118
b0 *B0
#1119
b0 *B0
#1121
b0 *B0
#1122
b0 *B0
#1124
b0 *B0
#1125
b0 *B0
#1126
b0 *B0
#1128
b0 *B0
#1129
b0 *B0
#1131
b0 *B0
#1132
b0 *B0
#1133
b0 *B0
#1135
b0 *B0
#1136
b0 *B0
#1138
b0 *B0
#1139
b0 *B0
#1140
b0 *B0
#1142
b0 *B0
#1143
b0 *B0
#1145
b0 *B0
#1146
b0 *B0
#1147
b0 *B0
#1149
b0 *B0
#1150
b1 *A0
#1150
b1 *A1
#1150
b1 *A0
#1150
b1 *A1
#1150
b0 *B0
#1152
b1 *B0
#1154
b1 *B0
#1156
b1 *B0
#1158
b1 *B0
#1160
b1 *B0
#1162
b1 *B0
#1164
b1 *B0
#1166
b1 *B0
#1168
b1 *B0
#1170
b1 *B0
#1172
b1 *B0
#1174
b1 *B0
#1176
b1 *B0
#1178
b1 *B0
#1180
b1 *B0
#1182
b1 *B0
#1184
b1 *B0
#1186
b1 *B0
#1188
b1 *B0
#1190
b1 *B0
#1192
b1 *B0
#1194
b1 *B0
#1196
b1 *B0
#1198
b1 *B0
#1200
b1 *B0
#1202
b1 *B0
#1204
b1 *B0
#1206
b1 *B0
#1208
b1 *B0
#1210
b1 *B0
#1212
b1 *B0
#1214
b1 *B0
#1216
b1 *B0
#1218
b1 *B0
#1220
b1 *B0
#1222
b1 *B0
#1224
b1 *B0
#1226
b1 *B0
#1228
b1 *B0
#1230
b1 *B0
#1232
b1 *B0
#1234
b1 *B0
#1236
b1 *B0
#1238
b1 *B0
#1240
b1 *B0
#1242
b1 *B0
#1244
b1 *B0
#1246
b1 *B0
#1248
b1 *B0
#1250
b1 *B0
#1252
b1 *B0
#1254
b1 *B0
#1256
b1 *B0
#1258
b1 *B0
#1260
b1 *B0
#1262
b1 *B0
#1264
b1 *B0
#1266
b1 *B0
#1268
b1 *B0
#1270
b1 *B0
#1272
b1 *B0
#1274
b1 *B0
#1276
b1 *B0
#1278
b1 *B0
#1280
b1 *B0
#1282
b1 *B0
#1284
b1 *B0
#1286
b1 *B0
#1288
b1 *B0
#1290
b1 *B0
#1292
b1 *B0
#1294
b1 *B0
#1296
b1 *B0
#1298
b1 *B0
#1300
b1 *B0
#1302
b1 *B0
#1304
b1 *B0
#1306
b1 *B0
#1308
b1 *B0
#1310
b1 *B0
#1312
b1 *B0
#1314
b1 *B0
#1316
b1 *B0
#1318
b1 *B0
#1320
b1 *B0
#1322
b1 *B0
#1324
b1 *B0
#1326
b1 *B0
#1328
b1 *B0
#1330
b1 *B0
#1332
b1 *B0
#1334
b1 *B0
#1336
b1 *B0
#1338
b1 *B0
#1340
b1 *B0
#1342
b1 *B0
#1344
b1 *B0
#1346
b1 *B0
#1348
b1 *B0
#1350
b1 *B0
#1352
b1 *B0
#1354
b1 *B0
#1356
b1 *B0
#1358
b1 *B0
#1360
b1 *B0
#1362
b1 *B0
#1364
b1 *B0
#1366
b1 *B0
#1368
b1 *B0
#1370
b1 *B0
#1372
b1 *B0
#1374
b1 *B0
#1376
b1 *B0
#1378
b1 *B0
#1380
b1 *B0
#1382
b1 *B0
#1384
b1 *B0
#1386
b1 *B0
#1388
b1 *B0
#1390
b1 *B0
#1392
b1 *B0
#1394
b1 *B0
#1396
b1 *B0
#1398
b1 *B0
#1400
b1 *B0
#1402
b1 *B0
#1404
b1 *B0
#1406
b1 *B0
#1408
b1 *B0
#1410
b1 *B0
#1412
b1 *B0
#1414
b1 *B0
#1416
b1 *B0
#1418
b1 *B0
#1420
b1 *B0
#1422
b1 *B0
#1424
b1 *B0
#1426
b1 *B0
#1428
b1 *B0
#1430
b1 *B0
#1432
b1 *B0
#1434
b1 *B0
#1436
b1 *B0
#1438
b1 *B0
#1440
b1 *B0
#1442
b1 *B0
#1444
b1 *B0
#1446
b1 *B0
#1448
b1 *B0
#1450
b1 *B0
#1452
b1 *B0
#1454
b1 *B0
#1456
b1 *B0
#1458
b1 *B0
#1460
b1 *B0
#1462
b1 *B0
#1464
b1 *B0
#1466
b1 *B0
#1468
b1 *B0
#1470
b1 *B0
#1472
b1 *B0
#1474
b1 *B0
#1476
b1 *B0
#1478
b1 *B0
#1480
b1 *B0
#1482
b1 *B0
#1484
b1 *B0
#1486
b1 *B0
#1488
b1 *B0
#1490
b1 *B0
#1492
b1 *B0
#1494
b1 *B0
#1496
b1 *B0
#1498
b1 *B0
#1500
b1 *B0
#1502
b1 *B0
#1504
b1 *B0
#1506
b1 *B0
#1508
b1 *B0
#1510
b1 *B0
#1512
b1 *B0
#1514
b1 *B0
#1516
b1 *B0
#1518
b1 *B0
#1520
b1 *B0
#1522
b1 *B0
#1524
b1 *B0
#1526
b1 *B0
#1528
b1 *B0
#1530
b1 *B0
#1532
b1 *B0
#1534
b1 *B0
#1536
b1 *B0
#1538
b1 *B0
#1540
b1 *B0
#1542
b1 *B0
#1544
b1 *B0
#1546
b1 *B0
#1548
b1 *B0
#1550
b1 *B0
#1552
b1 *B0
#1554
b1 *B0
#1556
b1 *B0
#1558
b1 *B0
#1560
b1 *B0
#1562
b1 *B0
#1564
b1 *B0
#1566
b1 *B0
#1568
b1 *B0
#1570
b1 *B0
#1572
b1 *B0
#1574
b1 *B0
#1576
b1 *B0
#1578
b1 *B0
#1580
b1 *B0
#1582
b1 *B0
#1584
b1 *B0
#1586
b1 *B0
#1588
b1 *B0
#1590
b1 *B0
#1592
b1 *B0
#1594
b1 *B0
#1596
b1 *B0
#1598
b1 *B0
#1600
b1 *B0
#1602
b1 *B0
#1604
b1 *B0
#1606
b1 *B0
#1608
b1 *B0
#1610
b1 *B0
#1612
b1 *B0
#1614
b1 *B0
#1616
b1 *B0
#1618
b1 *B0
#1620
b1 *B0
#1622
b1 *B0
#1624
b1 *B0
#1626
b1 *B0
#1628
b1 *B0
#1630
b1 *B0
#1632
b1 *B0
#1634
b1 *B0
#1636
b1 *B0
#1638
b1 *B0
#1640
b1 *B0
#1642
b1 *B0
#1644
b1 *B0
#1646
b1 *B0
#1648
b1 *B0
#1650
b1 *B0
#1652
b1 *B0
#1654
b1 *B0
#1656
b1 *B0
#1658
b1 *B0
#1660
b1 *B0
#1662
b1 *B0
#1664
b1 *B0
#1666
b1 *B0
#1668
b1 *B0
#1670
b1 *B0
#1672
b1 *B0
#1674
b1 *B0
#1676
b1 *B0
#1678
b1 *B0
#1680
b1 *B0
#1682
b1 *B0
#1684
b1 *B0
#1686
b1 *B0
#1688
b1 *B0
#1690
b1 *B0
#1692
b1 *B0
#1694
b1 *B0
#1696
b1 *B0
#1698
b1 *B0
#1700
b1 *B0
#1702
b1 *B0
#1704
b1 *B0
#1706
b1 *B0
#1708
b1 *B0
#1710
b1 *B0
#1712
b1 *B0
#1714
b1 *B0
#1716
b1 *B0
#1718
b1 *B0
#1720
b1 *B0
#1722
b1 *B0
#1724
b1 *B0
#1726
b1 *B0
#1728
b1 *B0
#1730
b1 *B0
#1732
b1 *B0
#1734
b1 *B0
#1736
b1 *B0
#1738
b1 *B0
#1740
b1 *B0
#1742
b1 *B0
#1744
b1 *B0
#1746
b1 *B0
#1748
b1 *B0
#1750
b1 *B0
#1752
b1 *B0
#1754
b1 *B0
#1756
b1 *B0
#1758
b1 *B0
#1760
b1 *B0
#1762
b1 *B0
#1764
b1 *B0
#1766
b1 *B0
#1768
b1 *B0
#1770
b1 *B0
#1772
b1 *B0
#1774
b1 *B0
#1776
b1 *B0
#1778
b1 *B0
#1780
b1 *B0
#1782
b1 *B0
#1784
b1 *B0
#1786
b1 *B0
#1788
b1 *B0
#1790
b1 *B0
#1792
b1 *B0
#1794
b1 *B0
#1796
b1 *B0
#1798
b1 *B0
#1800
b1 *B0
#1802
b1 *B0
#1804
b1 *B0
#1806
b1 *B0
#1808
b1 *B0
#1810
b1 *B0
#1812
b1 *B0
#1814
b1 *B0
#1816
b1 *B0
#1818
b1 *B0
#1820
b1 *B0
#1822
b1 *B0
#1824
b1 *B0
#1826
b1 *B0
#1828
b1 *B0
#1830
b1 *B0
#1832
b1 *B0
#1834
b1 *B0
#1836
b1 *B0
#1838
b1 *B0
#1840
b1 *B0
#1842
b1 *B0
#1844
b1 *B0
#1846
b1 *B0
#1848
b1 *B0
#1850
b1 *B0
#1852
b1 *B0
#1854
b1 *B0
#1856
b1 *B0
#1858
b1 *B0
#1860
b1 *B0
#1862
b1 *B0
#1864
b1 *B0
#1866
b1 *B0
#1868
b1 *B0
#1870
b1 *B0
#1872
b1 *B0
#1874
b1 *B0
#1876
b1 *B0
#1878
b1 *B0
#1880
b1 *B0
#1882
b1 *B0
#1884
b1 *B0
#1886
b1 *B0
#1888
b1 *B0
#1890
b1 *B0
#1892
b1 *B0
#1894
b1 *B0
#1896
b1 *B0
#1898
b1 *B0
#1900
b1 *B0
#1902
b1 *B0
#1904
b1 *B0
#1906
b1 *B0
#1908
b1 *B0
#1910
b1 *B0
#1912
b1 *B0
#1914
b1 *B0
#1916
b1 *B0
#1918
b1 *B0
#1920
b1 *B0
#1922
b1 *B0
#1924
b1 *B0
#1926
b1 *B0
#1928
b1 *B0
#1930
b1 *B0
#1932
b1 *B0
#1934
b1 *B0
#1936
b1 *B0
#1938
b1 *B0
#1940
b1 *B0
#1942
b1 *B0
#1944
b1 *B0
#1946
b1 *B0
#1948
b1 *B0
#1950
b1 *B0
#1952
b1 *B0
#1954
b1 *B0
#1956
b1 *B0
#1958
b1 *B0
#1960
b1 *B0
#1962
b1 *B0
#1964
b1 *B0
#1966
b1 *B0
#1968
b1 *B0
#1970
b1 *B0
#1972
b1 *B0
#1974
b1 *B0
#1976
b1 *B0
#1978
b1 *B0
#1980
b1 *B0
#1982
b1 *B0
#1984
b1 *B0
#1986
b1 *B0
#1988
b1 *B0
#1990
b1 *B0
#1992
b1 *B0
#1994
b1 *B0
#1996
b1 *B0
#1998
b1 *B0
#2000
b1 *B0
#2002
b1 *B0
#2004
b1 *B0
#2006
b1 *B0
#2008
b1 *B0
#2010
b1 *B0
#2012
b1 *B0
#2014
b1 *B0
#2016
b1 *B0
#2018
b1 *B0
#2020
b1 *B0
#2022
b1 *B0
#2024
b1 *B0
#2026
b1 *B0
#2028
b1 *B0
#2030
b1 *B0
#2032
b1 *B0
#2034
b1 *B0
#2036
b1 *B0
#2038
b1 *B0
#2040
b1 *B0
#2042
b1 *B0
#2044
b1 *B0
#2046
b1 *B0
#2048
b1 *B0
#2050
b1 *B0
#2052
b1 *B0
#2054
b1 *B0
#2056
b1 *B0
#2058
b1 *B0
#2060
b1 *B0
#2062
b1 *B0
#2064
b1 *B0
#2066
b1 *B0
#2068
b1 *B0
#2070
b1 *B0
#2072
b1 *B0
#2074
b1 *B0
#2076
b1 *B0
#2078
b1 *B0
#2080
b1 *B0
#2082
b1 *B0
#2084
b1 *B0
#2086
b1 *B0
#2088
b1 *B0
#2090
b1 *B0
#2092
b1 *B0
#2094
b1 *B0
#2096
b1 *B0
#2098
b1 *B0
#2100
b1 *B0
#2102
b1 *B0
#2104
b1 *B0
#2106
b1 *B0
#2108
b1 *B0
#2110
b1 *B0
#2112
b1 *B0
#2114
b1 *B0
#2116
b1 *B0
#2118
b1 *B0
#2120
b1 *B0
#2122
b1 *B0
#2124
b1 *B0
#2126
b1 *B0
#2128
b1 *B0
#2130
b1 *B0
#2132
b1 *B0
#2134
b1 *B0
#2136
b1 *B0
#2138
b1 *B0
#2140
b1 *B0
#2142
b1 *B0
#2144
b1 *B0
#2146
b1 *B0
#2148
b1 *B0
#2150
b1 *B0
#2152
b1 *B0
#2154
b1 *B0
#2156
b1 *B0
#2158
b1 *B0
#2160
b1 *B0
#2162
b1 *B0
#2164
b1 *B0
#2166
b1 *B0
#2168
b1 *B0
#2170
b1 *B0
#2172
b1 *B0
#2174
b1 *B0
#2176
b1 *B0
#2178
b1 *B0
#2180
b1 *B0
#2182
b1 *B0
#2184
b1 *B0
#2186
b1 *B0
#2188
b1 *B0
#2190
b1 *B0
#2192
b1 *B0
#2194
b1 *B0
#2196
b1 *B0
#2198
b1 *B0
#2200
b1 *B0
#2202
b1 *B0
#2204
b1 *B0
#2206
b1 *B0
#2208
b1 *B0
#2210
b1 *B0
#2212
b1 *B0
#2214
b1 *B0
#2216
b1 *B0
#2218
b1 *B0
#2220
b1 *B0
#2222
b1 *B0
#2224
b1 *B0
#2226
b1 *B0
#2228
b1 *B0
#2230
b1 *B0
#2232
b1 *B0
#2234
b1 *B0
#2236
b1 *B0
#2238
b1 *B0
#2240
b1 *B0
#2242
b1 *B0
#2244
b1 *B0
#2246
b1 *B0
#2248
b1 *B0
#2250
b1 *B0
#2252
b1 *B0
#2254
b1 *B0
#2256
b1 *B0
#2258
b1 *B0
#2260
b1 *B0
#2262
b1 *B0
#2264
b1 *B0
#2266
b1 *B0
#2268
b1 *B0
#2270
b1 *B0
#2272
b1 *B0
#2274
b1 *B0
#2276
b1 *B0
#2278
b1 *B0
#2280
b1 *B0
#2282
b1 *B0
#2284
b1 *B0
#2286
b1 *B0
#2288
b1 *B0
