Lab 4/4.1 Time generated.vcd
$date
	05/21/20 17:50:32
$end
$version
	RIMS 2.8
$end
$timescale
	1 ms
$end
$scope module RIMS $end
$var wire 1 *TMR TIMER_ISR $end
$var wire 1 *A0 A0 $end
$var wire 1 *A1 A1 $end
$var wire 1 *A2 A2 $end
$var wire 1 *A3 A3 $end
$var wire 1 *A4 A4 $end
$var wire 1 *A5 A5 $end
$var wire 1 *A6 A6 $end
$var wire 1 *A7 A7 $end
$var wire 1 *B0 B0 $end
$var wire 1 *B1 B1 $end
$var wire 1 *B2 B2 $end
$var wire 1 *B3 B3 $end
$var wire 1 *B4 B4 $end
$var wire 1 *B5 B5 $end
$var wire 1 *B6 B6 $end
$var wire 1 *B7 B7 $end
$upscope $end
$enddefinitions $end

#0
$dumpvars
b0 *TMR
b0 *A0
b0 *A1
b0 *A2
b0 *A3
b0 *A4
b0 *A5
b0 *A6
b0 *A7
b0 *B0
b0 *B1
b0 *B2
b0 *B3
b0 *B4
b0 *B5
b0 *B6
b0 *B7
$end
#9
b0 *B0
#2004
b1 *TMR
#2008
b0 *TMR
#2013
b1 *B0
#4004
b1 *TMR
#4008
b0 *TMR
#4014
b1 *B0
#6004
b1 *TMR
#6008
b0 *TMR
#6014
b1 *B0
#8004
b1 *TMR
#8008
b0 *TMR
#8014
b1 *B0
#10004
b1 *TMR
#10008
b0 *TMR
#10014
b0 *B0
#12004
b1 *TMR
#12008
b0 *TMR
#12014
b0 *B0
#14004
b1 *TMR
#14008
b0 *TMR
#14014
b0 *B0
#16004
b1 *TMR
#16008
b0 *TMR
#16014
b0 *B0
#18004
b1 *TMR
#18008
b0 *TMR
#18014
b0 *B0
#20004
b1 *TMR
#20008
b0 *TMR
#20014
b0 *B0
#22004
b1 *TMR
#22008
b0 *TMR
#22014
b0 *B0
#24004
b1 *TMR
#24008
b0 *TMR
#24014
b0 *B0
#26004
b1 *TMR
#26008
b0 *TMR
#26014
b0 *B0
#28004
b1 *TMR
#28008
b0 *TMR
#28014
b0 *B0
#30004
b1 *TMR
#30008
b0 *TMR
#30014
b1 *B0
#32004
b1 *TMR
#32008
b0 *TMR
#32014
b1 *B0
#34004
b1 *TMR
#34008
b0 *TMR
#34014
b1 *B0
#36004
b1 *TMR
#36008
b0 *TMR
#36014
b1 *B0
#38004
b1 *TMR
#38008
b0 *TMR
#38014
b0 *B0
#40004
b1 *TMR
#40008
b0 *TMR
#40014
b0 *B0
#42004
b1 *TMR
#42008
b0 *TMR
#42014
b0 *B0
#44004
b1 *TMR
#44008
b0 *TMR
#44014
b0 *B0
#46004
b1 *TMR
#46008
b0 *TMR
#46014
b0 *B0
#48004
b1 *TMR
#48008
b0 *TMR
#48014
b0 *B0
#50004
b1 *TMR
#50008
b0 *TMR
#50014
b0 *B0
#52004
b1 *TMR
#52008
b0 *TMR
#52014
b0 *B0
#54004
b1 *TMR
#54008
b0 *TMR
#54014
b0 *B0
#56004
b1 *TMR
#56008
b0 *TMR
#56014
b0 *B0
#58004
b1 *TMR
#58008
b0 *TMR
#58014
b1 *B0
#9
b0 *B0
#2004
b1 *TMR
#2008
b0 *TMR
#2013
b1 *B0
#4004
b1 *TMR
#4008
b0 *TMR
#4014
b1 *B0
#6004
b1 *TMR
#6008
b0 *TMR
#6014
b1 *B0
#8004
b1 *TMR
#8008
b0 *TMR
#8014
b1 *B0
#10004
b1 *TMR
#10008
b0 *TMR
#10014
b0 *B0
#12004
b1 *TMR
#12008
b0 *TMR
#12014
b0 *B0
#14004
b1 *TMR
#14008
b0 *TMR
#14014
b0 *B0
#16004
b1 *TMR
#16008
b0 *TMR
#16014
b0 *B0
#18004
b1 *TMR
#18008
b0 *TMR
#18014
b0 *B0
#20004
b1 *TMR
#20008
b0 *TMR
#20014
b0 *B0
#22004
b1 *TMR
#22008
b0 *TMR
#22014
b0 *B0
#24004
b1 *TMR
#24008
b0 *TMR
#24014
b0 *B0
#26004
b1 *TMR
#26008
b0 *TMR
#26014
b0 *B0
#28004
b1 *TMR
#28008
b0 *TMR
#28014
b0 *B0
#30004
b1 *TMR
#30008
b0 *TMR
#30014
b1 *B0
#32004
b1 *TMR
#32008
b0 *TMR
#32014
b1 *B0
#34004
b1 *TMR
#34008
b0 *TMR
#34014
b1 *B0
#36004
b1 *TMR
#36008
b0 *TMR
#36014
b1 *B0
#38004
b1 *TMR
#38008
b0 *TMR
#38014
b0 *B0
#40004
b1 *TMR
#40008
b0 *TMR
#40014
b0 *B0
#42004
b1 *TMR
#42008
b0 *TMR
#42014
b0 *B0
#44004
b1 *TMR
#44008
b0 *TMR
#44014
b0 *B0
#46004
b1 *TMR
#46008
b0 *TMR
#46014
b0 *B0
#48004
b1 *TMR
#48008
b0 *TMR
#48014
b0 *B0
#50004
b1 *TMR
#50008
b0 *TMR
#50014
b0 *B0
#52004
b1 *TMR
#52008
b0 *TMR
#52014
b0 *B0
#54004
b1 *TMR
#54008
b0 *TMR
#54014
b0 *B0
#56004
b1 *TMR
#56008
b0 *TMR
#56014
b0 *B0
#58004
b1 *TMR
#58008
b0 *TMR
#58014
b1 *B0
