Lab 4/p.vcd
$date
	05/23/20 11:13:56
$end
$version
	RIMS 2.8
$end
$timescale
	1 ms
$end
$scope module RIMS $end
$var wire 1 *TMR TIMER_ISR $end
$var wire 1 *A0 A0 $end
$var wire 1 *A1 A1 $end
$var wire 1 *A2 A2 $end
$var wire 1 *A3 A3 $end
$var wire 1 *A4 A4 $end
$var wire 1 *A5 A5 $end
$var wire 1 *A6 A6 $end
$var wire 1 *A7 A7 $end
$var wire 1 *B0 B0 $end
$var wire 1 *B1 B1 $end
$var wire 1 *B2 B2 $end
$var wire 1 *B3 B3 $end
$var wire 1 *B4 B4 $end
$var wire 1 *B5 B5 $end
$var wire 1 *B6 B6 $end
$var wire 1 *B7 B7 $end
$upscope $end
$enddefinitions $end

#0
$dumpvars
b0 *TMR
b0 *A0
b0 *A1
b0 *A2
b0 *A3
b0 *A4
b0 *A5
b0 *A6
b0 *A7
b0 *B0
b0 *B1
b0 *B2
b0 *B3
b0 *B4
b0 *B5
b0 *B6
b0 *B7
$end
#511
b1 *TMR
#517
b0 *B0
#519
b1 *B0
#528
b1 *B2
#528
b0 *B3
#528
b0 *B4
#536
b0 *TMR
#1011
b1 *TMR
#1022
b0 *B2
#1022
b1 *B3
#1023
b0 *B4
#1030
b0 *TMR
#1511
b1 *TMR
#1522
b0 *B2
#1523
b0 *B3
#1523
b1 *B4
#1530
b0 *TMR
#2011
b1 *TMR
#2019
b0 *B0
#2028
b1 *B2
#2028
b0 *B3
#2028
b0 *B4
#2036
b0 *TMR
#2511
b1 *TMR
#2522
b0 *B2
#2522
b1 *B3
#2523
b0 *B4
#2530
b0 *TMR
#3011
b1 *TMR
#3022
b0 *B2
#3023
b0 *B3
#3023
b1 *B4
#3030
b0 *TMR
#3511
b1 *TMR
#3519
b1 *B0
#3528
b1 *B2
#3528
b0 *B3
#3528
b0 *B4
#3536
b0 *TMR
#4011
b1 *TMR
#4022
b0 *B2
#4022
b1 *B3
#4023
b0 *B4
#4030
b0 *TMR
#4511
b1 *TMR
#4522
b0 *B2
#4523
b0 *B3
#4523
b1 *B4
#4530
b0 *TMR
#5011
b1 *TMR
#5019
b0 *B0
#5028
b1 *B2
#5028
b0 *B3
#5028
b0 *B4
#5036
b0 *TMR
#5511
b1 *TMR
#5522
b0 *B2
#5522
b1 *B3
#5523
b0 *B4
#5530
b0 *TMR
#6011
b1 *TMR
#6022
b0 *B2
#6023
b0 *B3
#6023
b1 *B4
#6030
b0 *TMR
#6447
b1 *A0
#6447
b1 *A0
#6511
b1 *TMR
#6519
b1 *B0
#6528
b1 *B2
#6528
b0 *B3
#6528
b0 *B4
#6536
b0 *TMR
#7011
b1 *TMR
#7022
b0 *B2
#7022
b1 *B3
#7023
b0 *B4
#7030
b0 *TMR
#7511
b1 *TMR
#7522
b0 *B2
#7523
b0 *B3
#7523
b1 *B4
#7530
b0 *TMR
#7997
b0 *A0
#7997
b0 *A0
#8011
b1 *TMR
#8019
b0 *B0
#8028
b1 *B2
#8028
b0 *B3
#8028
b0 *B4
#8036
b0 *TMR
#8511
b1 *TMR
#8522
b0 *B2
#8522
b1 *B3
#8523
b0 *B4
#8530
b0 *TMR
#9011
b1 *TMR
#9022
b0 *B2
#9023
b0 *B3
#9023
b1 *B4
#9030
b0 *TMR
#9046
b1 *A0
#9046
b1 *A0
#9511
b1 *TMR
#9519
b1 *B0
#9528
b1 *B2
#9528
b0 *B3
#9528
b0 *B4
#9536
b0 *TMR
#10011
b1 *TMR
#10022
b0 *B2
#10022
b1 *B3
#10023
b0 *B4
#10030
b0 *TMR
#10511
b1 *TMR
#10522
b0 *B2
#10523
b0 *B3
#10523
b1 *B4
#10530
b0 *TMR
#10996
b0 *A0
#10996
b0 *A0
#11011
b1 *TMR
#11019
b0 *B0
#11028
b1 *B2
#11028
b0 *B3
#11028
b0 *B4
#11036
b0 *TMR
#11511
b1 *TMR
#11522
b0 *B2
#11522
b1 *B3
#11523
b0 *B4
#11530
b0 *TMR
#12011
b1 *TMR
#12022
b0 *B2
#12023
b0 *B3
#12023
b1 *B4
#12030
b0 *TMR
#12511
b1 *TMR
#12519
b1 *B0
#12528
b1 *B2
#12528
b0 *B3
#12528
b0 *B4
#12536
b0 *TMR
#13011
b1 *TMR
#13022
b0 *B2
#13022
b1 *B3
#13023
b0 *B4
#13030
b0 *TMR
#13511
b1 *TMR
#13522
b0 *B2
#13523
b0 *B3
#13523
b1 *B4
#13530
b0 *TMR
#14011
b1 *TMR
#14019
b0 *B0
#14028
b1 *B2
#14028
b0 *B3
#14028
b0 *B4
#14036
b0 *TMR
#14511
b1 *TMR
#14522
b0 *B2
#14522
b1 *B3
#14523
b0 *B4
#14530
b0 *TMR
#15011
b1 *TMR
#15022
b0 *B2
#15023
b0 *B3
#15023
b1 *B4
#15030
b0 *TMR
#15511
b1 *TMR
#15519
b1 *B0
#15528
b1 *B2
#15528
b0 *B3
#15528
b0 *B4
#15536
b0 *TMR
#16011
b1 *TMR
#16022
b0 *B2
#16022
b1 *B3
#16023
b0 *B4
#16030
b0 *TMR
#16511
b1 *TMR
#16522
b0 *B2
#16523
b0 *B3
#16523
b1 *B4
#16530
b0 *TMR
#17011
b1 *TMR
#17019
b0 *B0
#17028
b1 *B2
#17028
b0 *B3
#17028
b0 *B4
#17036
b0 *TMR
#17511
b1 *TMR
#17522
b0 *B2
#17522
b1 *B3
#17523
b0 *B4
#17530
b0 *TMR
#18011
b1 *TMR
#18022
b0 *B2
#18023
b0 *B3
#18023
b1 *B4
#18030
b0 *TMR
#18511
b1 *TMR
#18519
b1 *B0
#18528
b1 *B2
#18528
b0 *B3
#18528
b0 *B4
#18536
b0 *TMR
#19011
b1 *TMR
#19022
b0 *B2
#19022
b1 *B3
#19023
b0 *B4
#19030
b0 *TMR
#19511
b1 *TMR
#19522
b0 *B2
#19523
b0 *B3
#19523
b1 *B4
#19530
b0 *TMR
#20011
b1 *TMR
#20019
b0 *B0
#20028
b1 *B2
#20028
b0 *B3
#20028
b0 *B4
#20036
b0 *TMR
#20511
b1 *TMR
#20522
b0 *B2
#20522
b1 *B3
#20523
b0 *B4
#20530
b0 *TMR
#21011
b1 *TMR
#21022
b0 *B2
#21023
b0 *B3
#21023
b1 *B4
#21030
b0 *TMR
#21511
b1 *TMR
#21519
b1 *B0
#21528
b1 *B2
#21528
b0 *B3
#21528
b0 *B4
#21536
b0 *TMR
#22011
b1 *TMR
#22022
b0 *B2
#22022
b1 *B3
#22023
b0 *B4
#22030
b0 *TMR
#22511
b1 *TMR
#22522
b0 *B2
#22523
b0 *B3
#22523
b1 *B4
#22530
b0 *TMR
#23011
b1 *TMR
#23019
b0 *B0
#23028
b1 *B2
#23028
b0 *B3
#23028
b0 *B4
#23036
b0 *TMR
#23511
b1 *TMR
#23522
b0 *B2
#23522
b1 *B3
#23523
b0 *B4
#23530
b0 *TMR
#24011
b1 *TMR
#24022
b0 *B2
#24023
b0 *B3
#24023
b1 *B4
#24030
b0 *TMR
#24511
b1 *TMR
#24519
b1 *B0
#24528
b1 *B2
#24528
b0 *B3
#24528
b0 *B4
#24536
b0 *TMR
#25011
b1 *TMR
#25022
b0 *B2
#25022
b1 *B3
#25023
b0 *B4
#25030
b0 *TMR
#25511
b1 *TMR
#25522
b0 *B2
#25523
b0 *B3
#25523
b1 *B4
#25530
b0 *TMR
#26011
b1 *TMR
#26019
b0 *B0
#26028
b1 *B2
#26028
b0 *B3
#26028
b0 *B4
#26036
b0 *TMR
#26511
b1 *TMR
#26522
b0 *B2
#26522
b1 *B3
#26523
b0 *B4
#26530
b0 *TMR
#27011
b1 *TMR
#27022
b0 *B2
#27023
b0 *B3
#27023
b1 *B4
#27030
b0 *TMR
#27039
b1 *A1
#27039
b1 *A1
#27339
b0 *A1
#27339
b0 *A1
#27511
b1 *TMR
#27519
b1 *B0
#27528
b1 *B2
#27528
b0 *B3
#27528
b0 *B4
#27536
b0 *TMR
#28011
b1 *TMR
#28022
b0 *B2
#28022
b1 *B3
#28023
b0 *B4
#28030
b0 *TMR
#28511
b1 *TMR
#28522
b0 *B2
#28523
b0 *B3
#28523
b1 *B4
#28530
b0 *TMR
#29011
b1 *TMR
#29019
b0 *B0
#29028
b1 *B2
#29028
b0 *B3
#29028
b0 *B4
#29036
b0 *TMR
#29388
b1 *A1
#29388
b1 *A1
#29511
b1 *TMR
#29522
b0 *B2
#29522
b1 *B3
#29523
b0 *B4
#29530
b0 *TMR
#30011
b1 *TMR
#30022
b0 *B2
#30023
b0 *B3
#30023
b1 *B4
#30030
b0 *TMR
#30511
b1 *TMR
#30519
b1 *B0
#30528
b1 *B2
#30528
b0 *B3
#30528
b0 *B4
#30536
b0 *TMR
#31011
b1 *TMR
#31022
b0 *B2
#31022
b1 *B3
#31023
b0 *B4
#31030
b0 *TMR
#31511
b1 *TMR
#31522
b0 *B2
#31523
b0 *B3
#31523
b1 *B4
#31530
b0 *TMR
#32011
b1 *TMR
#32019
b0 *B0
#32028
b1 *B2
#32028
b0 *B3
#32028
b0 *B4
#32036
b0 *TMR
#32511
b1 *TMR
#32522
b0 *B2
#32522
b1 *B3
#32523
b0 *B4
#32530
b0 *TMR
#33011
b1 *TMR
#33022
b0 *B2
#33023
b0 *B3
#33023
b1 *B4
#33030
b0 *TMR
#33511
b1 *TMR
#33519
b1 *B0
#33528
b1 *B2
#33528
b0 *B3
#33528
b0 *B4
#33536
b0 *TMR
#34011
b1 *TMR
#34022
b0 *B2
#34022
b1 *B3
#34023
b0 *B4
#34030
b0 *TMR
#34511
b1 *TMR
#34522
b0 *B2
#34523
b0 *B3
#34523
b1 *B4
#34530
b0 *TMR
#35011
b1 *TMR
#35019
b0 *B0
#35028
b1 *B2
#35028
b0 *B3
#35028
b0 *B4
#35036
b0 *TMR
#35511
b1 *TMR
#35522
b0 *B2
#35522
b1 *B3
#35523
b0 *B4
#35530
b0 *TMR
#35586
b0 *A1
#35586
b0 *A1
#36011
b1 *TMR
#36022
b0 *B2
#36023
b0 *B3
#36023
b1 *B4
#36030
b0 *TMR
#36511
b1 *TMR
#36519
b1 *B0
#36528
b1 *B2
#36528
b0 *B3
#36528
b0 *B4
#36536
b0 *TMR
#37011
b1 *TMR
#37022
b0 *B2
#37022
b1 *B3
#37023
b0 *B4
#37030
b0 *TMR
#37511
b1 *TMR
#37522
b0 *B2
#37523
b0 *B3
#37523
b1 *B4
#37530
b0 *TMR
#38011
b1 *TMR
#38019
b0 *B0
#38028
b1 *B2
#38028
b0 *B3
#38028
b0 *B4
#38036
b0 *TMR
#38511
b1 *TMR
#38522
b0 *B2
#38522
b1 *B3
#38523
b0 *B4
#38530
b0 *TMR
#39011
b1 *TMR
#39022
b0 *B2
#39023
b0 *B3
#39023
b1 *B4
#39030
b0 *TMR
#39511
b1 *TMR
#39519
b1 *B0
#39528
b1 *B2
#39528
b0 *B3
#39528
b0 *B4
#39536
b0 *TMR
#39884
b1 *A1
#39884
b1 *A1
#40011
b1 *TMR
#40022
b0 *B2
#40022
b1 *B3
#40023
b0 *B4
#40030
b0 *TMR
#40511
b1 *TMR
#40522
b0 *B2
#40523
b0 *B3
#40523
b1 *B4
#40530
b0 *TMR
#41011
b1 *TMR
#41019
b0 *B0
#41028
b1 *B2
#41028
b0 *B3
#41028
b0 *B4
#41036
b0 *TMR
#41183
b0 *A1
#41183
b0 *A1
#41511
b1 *TMR
#41522
b0 *B2
#41522
b1 *B3
#41523
b0 *B4
#41530
b0 *TMR
#42011
b1 *TMR
#42022
b0 *B2
#42023
b0 *B3
#42023
b1 *B4
#42030
b0 *TMR
#42033
b1 *A0
#42033
b1 *A0
#42511
b1 *TMR
#42519
b1 *B0
#42528
b1 *B2
#42528
b0 *B3
#42528
b0 *B4
#42536
b0 *TMR
#43011
b1 *TMR
#43022
b0 *B2
#43022
b1 *B3
#43023
b0 *B4
#43030
b0 *TMR
#43511
b1 *TMR
#43522
b0 *B2
#43523
b0 *B3
#43523
b1 *B4
#43530
b0 *TMR
#44011
b1 *TMR
#44019
b0 *B0
#44028
b1 *B2
#44028
b0 *B3
#44028
b0 *B4
#44036
b0 *TMR
#44511
b1 *TMR
#44522
b0 *B2
#44522
b1 *B3
#44523
b0 *B4
#44530
b0 *TMR
#45011
b1 *TMR
#45022
b0 *B2
#45023
b0 *B3
#45023
b1 *B4
#45030
b0 *TMR
#45511
b1 *TMR
#45519
b1 *B0
#45528
b1 *B2
#45528
b0 *B3
#45528
b0 *B4
#45536
b0 *TMR
#46011
b1 *TMR
#46022
b0 *B2
#46022
b1 *B3
#46023
b0 *B4
#46030
b0 *TMR
#46511
b1 *TMR
#46522
b0 *B2
#46523
b0 *B3
#46523
b1 *B4
#46530
b0 *TMR
#47011
b1 *TMR
#47019
b0 *B0
#47028
b1 *B2
#47028
b0 *B3
#47028
b0 *B4
#47036
b0 *TMR
#47511
b1 *TMR
#47522
b0 *B2
#47522
b1 *B3
#47523
b0 *B4
#47530
b0 *TMR
#48011
b1 *TMR
#48022
b0 *B2
#48023
b0 *B3
#48023
b1 *B4
#48030
b0 *TMR
#48381
b0 *A0
#48381
b0 *A0
#48511
b1 *TMR
#48519
b1 *B0
#48528
b1 *B2
#48528
b0 *B3
#48528
b0 *B4
#48536
b0 *TMR
#49011
b1 *TMR
#49022
b0 *B2
#49022
b1 *B3
#49023
b0 *B4
#49030
b0 *TMR
#49511
b1 *TMR
#49522
b0 *B2
#49523
b0 *B3
#49523
b1 *B4
#49530
b1 *A0
#49530
b1 *A0
#49530
b0 *TMR
#50011
b1 *TMR
#50019
b0 *B0
#50028
b1 *B2
#50028
b0 *B3
#50028
b0 *B4
#50036
b0 *TMR
#50511
b1 *TMR
#50522
b0 *B2
#50522
b1 *B3
#50523
b0 *B4
#50530
b0 *TMR
#50580
b0 *A0
#50580
b0 *A0
#51011
b1 *TMR
#51022
b0 *B2
#51023
b0 *B3
#51023
b1 *B4
#51030
b0 *TMR
#51511
b1 *TMR
#51519
b1 *B0
#51528
b1 *B2
#51528
b0 *B3
#51528
b0 *B4
#51536
b0 *TMR
#52011
b1 *TMR
#52022
b0 *B2
#52022
b1 *B3
#52023
b0 *B4
#52030
b0 *TMR
#52129
b1 *A0
#52129
b1 *A0
#52511
b1 *TMR
#52522
b0 *B2
#52523
b0 *B3
#52523
b1 *B4
#52530
b0 *TMR
#52738
b0 *A0
#52738
b0 *A0
#53011
b1 *TMR
#53019
b0 *B0
#53028
b1 *B2
#53028
b0 *B3
#53028
b0 *B4
#53036
b0 *TMR
#53229
b1 *A0
#53229
b1 *A0
#53511
b1 *TMR
#53522
b0 *B2
#53522
b1 *B3
#53523
b0 *B4
#53530
b0 *TMR
#53728
b0 *A0
#53728
b0 *A0
#54011
b1 *TMR
#54022
b0 *B2
#54023
b0 *B3
#54023
b1 *B4
#54030
b0 *TMR
#54511
b1 *TMR
#54519
b1 *B0
#54528
b1 *B2
#54528
b0 *B3
#54528
b0 *B4
#54536
b0 *TMR
#55011
b1 *TMR
#55022
b0 *B2
#55022
b1 *B3
#55023
b0 *B4
#55030
b0 *TMR
#55511
b1 *TMR
#55522
b0 *B2
#55523
b0 *B3
#55523
b1 *B4
#55530
b0 *TMR
#55628
b1 *A3
#55628
b1 *A3
#56011
b1 *TMR
#56019
b0 *B0
#56028
b1 *B2
#56028
b0 *B3
#56028
b0 *B4
#56036
b0 *TMR
#56511
b1 *TMR
#56522
b0 *B2
#56522
b1 *B3
#56523
b0 *B4
#56530
b0 *TMR
#57011
b1 *TMR
#57022
b0 *B2
#57023
b0 *B3
#57023
b1 *B4
#57030
b0 *TMR
#57511
b1 *TMR
#57519
b1 *B0
#57528
b1 *B2
#57528
b0 *B3
#57528
b0 *B4
#57536
b0 *TMR
#57927
b0 *A3
#57927
b0 *A3
#58011
b1 *TMR
#58022
b0 *B2
#58022
b1 *B3
#58023
b0 *B4
#58030
b0 *TMR
#58511
b1 *TMR
#58522
b0 *B2
#58523
b0 *B3
#58523
b1 *B4
#58530
b0 *TMR
#58726
b1 *A7
#58726
b1 *A7
#59011
b1 *TMR
#59019
b0 *B0
#59028
b1 *B2
#59028
b0 *B3
#59028
b0 *B4
#59036
b0 *TMR
#59511
b1 *TMR
#59522
b0 *B2
#59522
b1 *B3
#59523
b0 *B4
#59530
b0 *TMR
#60011
b1 *TMR
#60022
b0 *B2
#60023
b0 *B3
#60023
b1 *B4
#60030
b0 *TMR
#60511
b1 *TMR
#60519
b1 *B0
#60528
b1 *B2
#60528
b0 *B3
#60528
b0 *B4
#60536
b0 *TMR
#60826
b0 *A7
#60826
b0 *A7
#61011
b1 *TMR
#61022
b0 *B2
#61022
b1 *B3
#61023
b0 *B4
#61030
b0 *TMR
#61511
b1 *TMR
#61522
b0 *B2
#61523
b0 *B3
#61523
b1 *B4
#61530
b0 *TMR
#61575
b1 *A7
#61575
b1 *A7
#62011
b1 *TMR
#62019
b0 *B0
#62028
b1 *B2
#62028
b0 *B3
#62028
b0 *B4
#62036
b0 *TMR
#62511
b1 *TMR
#62522
b0 *B2
#62522
b1 *B3
#62523
b0 *B4
#62530
b0 *TMR
#62675
b0 *A7
#62675
b0 *A7
#63011
b1 *TMR
#63022
b0 *B2
#63023
b0 *B3
#63023
b1 *B4
#63030
b0 *TMR
#63511
b1 *TMR
#63519
b1 *B0
#63528
b1 *B2
#63528
b0 *B3
#63528
b0 *B4
#63536
b0 *TMR
#64011
b1 *TMR
#64022
b0 *B2
#64022
b1 *B3
#64023
b0 *B4
#64030
b0 *TMR
#64511
b1 *TMR
#64522
b0 *B2
#64523
b0 *B3
#64523
b1 *B4
#64530
b0 *TMR
#64574
b1 *A6
#64574
b1 *A6
#65011
b1 *TMR
#65019
b0 *B0
#65028
b1 *B2
#65028
b0 *B3
#65028
b0 *B4
#65036
b0 *TMR
#65274
b0 *A6
#65274
b0 *A6
#65511
b1 *TMR
#65522
b0 *B2
#65522
b1 *B3
#65523
b0 *B4
#65530
b0 *TMR
#65924
b1 *A5
#65924
b1 *A5
#66011
b1 *TMR
#66022
b0 *B2
#66023
b0 *B3
#66023
b1 *B4
#66030
b0 *TMR
#66511
b1 *TMR
#66519
b1 *B0
#66523
b0 *A5
#66523
b0 *A5
#66528
b1 *B2
#66528
b0 *B3
#66528
b0 *B4
#66536
b0 *TMR
#67011
b1 *TMR
#67022
b0 *B2
#67022
b1 *B3
#67023
b0 *B4
#67030
b0 *TMR
#67511
b1 *TMR
#67522
b0 *B2
#67523
b0 *B3
#67523
b1 *B4
#67530
b0 *TMR
#68011
b1 *TMR
#68019
b0 *B0
#68028
b1 *B2
#68028
b0 *B3
#68028
b0 *B4
#68036
b0 *TMR
#68511
b1 *TMR
#68522
b0 *B2
#68522
b1 *B3
#68523
b0 *B4
#68530
b0 *TMR
#69011
b1 *TMR
#69022
b0 *B2
#69023
b0 *B3
#69023
b1 *B4
#69030
b0 *TMR
#69511
b1 *TMR
#69519
b1 *B0
#69528
b1 *B2
#69528
b0 *B3
#69528
b0 *B4
#69536
b0 *TMR
#70011
b1 *TMR
#70022
b0 *B2
#70022
b1 *B3
#70023
b0 *B4
#70030
b0 *TMR
#70511
b1 *TMR
#70522
b0 *B2
#70523
b0 *B3
#70523
b1 *B4
#70530
b0 *TMR
#71011
b1 *TMR
#71019
b0 *B0
#71028
b1 *B2
#71028
b0 *B3
#71028
b0 *B4
#71036
b0 *TMR
#71511
b1 *TMR
#71522
b0 *B2
#71522
b1 *B3
#71523
b0 *B4
#71530
b0 *TMR
#72011
b1 *TMR
#72022
b0 *B2
#72023
b0 *B3
#72023
b1 *B4
#72030
b0 *TMR
#72511
b1 *TMR
#72519
b1 *B0
#72528
b1 *B2
#72528
b0 *B3
#72528
b0 *B4
#72536
b0 *TMR
#73011
b1 *TMR
#73022
b0 *B2
#73022
b1 *B3
#73023
b0 *B4
#73030
b0 *TMR
#73511
b1 *TMR
#73522
b0 *B2
#73523
b0 *B3
#73523
b1 *B4
#73530
b0 *TMR
#74011
b1 *TMR
#74019
b0 *B0
#74028
b1 *B2
#74028
b0 *B3
#74028
b0 *B4
#74036
b0 *TMR
#74511
b1 *TMR
#74522
b0 *B2
#74522
b1 *B3
#74523
b0 *B4
#74530
b0 *TMR
#75011
b1 *TMR
#75022
b0 *B2
#75023
b0 *B3
#75023
b1 *B4
#75030
b0 *TMR
#75511
b1 *TMR
#75519
b1 *B0
#75528
b1 *B2
#75528
b0 *B3
#75528
b0 *B4
#75536
b0 *TMR
#76011
b1 *TMR
#76022
b0 *B2
#76022
b1 *B3
#76023
b0 *B4
#76030
b0 *TMR
#76511
b1 *TMR
#76522
b0 *B2
#76523
b0 *B3
#76523
b1 *B4
#76530
b0 *TMR
#77011
b1 *TMR
#77019
b0 *B0
#77028
b1 *B2
#77028
b0 *B3
#77028
b0 *B4
#77036
b0 *TMR
#77511
b1 *TMR
#77522
b0 *B2
#77522
b1 *B3
#77523
b0 *B4
#77530
b0 *TMR
#78011
b1 *TMR
#78022
b0 *B2
#78023
b0 *B3
#78023
b1 *B4
#78030
b0 *TMR
#78511
b1 *TMR
#78519
b1 *B0
#78528
b1 *B2
#78528
b0 *B3
#78528
b0 *B4
#78536
b0 *TMR
#79011
b1 *TMR
#79022
b0 *B2
#79022
b1 *B3
#79023
b0 *B4
#79030
b0 *TMR
#79511
b1 *TMR
#79522
b0 *B2
#79523
b0 *B3
#79523
b1 *B4
#79530
b0 *TMR
#80011
b1 *TMR
#80019
b0 *B0
#80028
b1 *B2
#80028
b0 *B3
#80028
b0 *B4
#80036
b0 *TMR
#80511
b1 *TMR
#80522
b0 *B2
#80522
b1 *B3
#80523
b0 *B4
#80530
b0 *TMR
#81011
b1 *TMR
#81022
b0 *B2
#81023
b0 *B3
#81023
b1 *B4
#81030
b0 *TMR
#81511
b1 *TMR
#81519
b1 *B0
#81528
b1 *B2
#81528
b0 *B3
#81528
b0 *B4
#81536
b0 *TMR
#82011
b1 *TMR
#82022
b0 *B2
#82022
b1 *B3
#82023
b0 *B4
#82030
b0 *TMR
#511
b1 *TMR
#517
b0 *B0
#2590
bOutput pins should never be read *Error
#519
b1 *B0
#528
b1 *B2
#528
b0 *B3
#528
b0 *B4
#536
b0 *TMR
#1011
b1 *TMR
#1022
b0 *B2
#1022
b1 *B3
#1023
b0 *B4
#1030
b0 *TMR
#1511
b1 *TMR
#1522
b0 *B2
#1523
b0 *B3
#1523
b1 *B4
#1530
b0 *TMR
#2011
b1 *TMR
#10091
bOutput pins should never be read *Error
#2019
b0 *B0
#2028
b1 *B2
#2028
b0 *B3
#2028
b0 *B4
#2036
b0 *TMR
#2511
b1 *TMR
#2522
b0 *B2
#2522
b1 *B3
#2523
b0 *B4
#2530
b0 *TMR
#3011
b1 *TMR
#3022
b0 *B2
#3023
b0 *B3
#3023
b1 *B4
#3030
b0 *TMR
#3511
b1 *TMR
#17591
bOutput pins should never be read *Error
#3519
b1 *B0
#3528
b1 *B2
#3528
b0 *B3
#3528
b0 *B4
#3536
b0 *TMR
#4011
b1 *TMR
#4022
b0 *B2
#4022
b1 *B3
#4023
b0 *B4
#4030
b0 *TMR
#4511
b1 *TMR
#4522
b0 *B2
#4523
b0 *B3
#4523
b1 *B4
#4530
b0 *TMR
#5011
b1 *TMR
#25091
bOutput pins should never be read *Error
#5019
b0 *B0
#5028
b1 *B2
#5028
b0 *B3
#5028
b0 *B4
#5036
b0 *TMR
#5511
b1 *TMR
#5522
b0 *B2
#5522
b1 *B3
#5523
b0 *B4
#5530
b0 *TMR
#6011
b1 *TMR
#6022
b0 *B2
#6023
b0 *B3
#6023
b1 *B4
#6030
b0 *TMR
#6447
b1 *A0
#6447
b1 *A0
#6511
b1 *TMR
#32591
bOutput pins should never be read *Error
#6519
b1 *B0
#6528
b1 *B2
#6528
b0 *B3
#6528
b0 *B4
#6536
b0 *TMR
#7011
b1 *TMR
#7022
b0 *B2
#7022
b1 *B3
#7023
b0 *B4
#7030
b0 *TMR
#7511
b1 *TMR
#7522
b0 *B2
#7523
b0 *B3
#7523
b1 *B4
#7530
b0 *TMR
#7997
b0 *A0
#7997
b0 *A0
#8011
b1 *TMR
#40091
bOutput pins should never be read *Error
#8019
b0 *B0
#8028
b1 *B2
#8028
b0 *B3
#8028
b0 *B4
#8036
b0 *TMR
#8511
b1 *TMR
#8522
b0 *B2
#8522
b1 *B3
#8523
b0 *B4
#8530
b0 *TMR
#9011
b1 *TMR
#9022
b0 *B2
#9023
b0 *B3
#9023
b1 *B4
#9030
b0 *TMR
#9046
b1 *A0
#9046
b1 *A0
#9511
b1 *TMR
#47591
bOutput pins should never be read *Error
#9519
b1 *B0
#9528
b1 *B2
#9528
b0 *B3
#9528
b0 *B4
#9536
b0 *TMR
#10011
b1 *TMR
#10022
b0 *B2
#10022
b1 *B3
#10023
b0 *B4
#10030
b0 *TMR
#10511
b1 *TMR
#10522
b0 *B2
#10523
b0 *B3
#10523
b1 *B4
#10530
b0 *TMR
#10996
b0 *A0
#10996
b0 *A0
#11011
b1 *TMR
#55091
bOutput pins should never be read *Error
#11019
b0 *B0
#11028
b1 *B2
#11028
b0 *B3
#11028
b0 *B4
#11036
b0 *TMR
#11511
b1 *TMR
#11522
b0 *B2
#11522
b1 *B3
#11523
b0 *B4
#11530
b0 *TMR
#12011
b1 *TMR
#12022
b0 *B2
#12023
b0 *B3
#12023
b1 *B4
#12030
b0 *TMR
#12511
b1 *TMR
#62591
bOutput pins should never be read *Error
#12519
b1 *B0
#12528
b1 *B2
#12528
b0 *B3
#12528
b0 *B4
#12536
b0 *TMR
#13011
b1 *TMR
#13022
b0 *B2
#13022
b1 *B3
#13023
b0 *B4
#13030
b0 *TMR
#13511
b1 *TMR
#13522
b0 *B2
#13523
b0 *B3
#13523
b1 *B4
#13530
b0 *TMR
#14011
b1 *TMR
#70091
bOutput pins should never be read *Error
#14019
b0 *B0
#14028
b1 *B2
#14028
b0 *B3
#14028
b0 *B4
#14036
b0 *TMR
#14511
b1 *TMR
#14522
b0 *B2
#14522
b1 *B3
#14523
b0 *B4
#14530
b0 *TMR
#15011
b1 *TMR
#15022
b0 *B2
#15023
b0 *B3
#15023
b1 *B4
#15030
b0 *TMR
#15511
b1 *TMR
#77591
bOutput pins should never be read *Error
#15519
b1 *B0
#15528
b1 *B2
#15528
b0 *B3
#15528
b0 *B4
#15536
b0 *TMR
#16011
b1 *TMR
#16022
b0 *B2
#16022
b1 *B3
#16023
b0 *B4
#16030
b0 *TMR
#16511
b1 *TMR
#16522
b0 *B2
#16523
b0 *B3
#16523
b1 *B4
#16530
b0 *TMR
#17011
b1 *TMR
#85091
bOutput pins should never be read *Error
#17019
b0 *B0
#17028
b1 *B2
#17028
b0 *B3
#17028
b0 *B4
#17036
b0 *TMR
#17511
b1 *TMR
#17522
b0 *B2
#17522
b1 *B3
#17523
b0 *B4
#17530
b0 *TMR
#18011
b1 *TMR
#18022
b0 *B2
#18023
b0 *B3
#18023
b1 *B4
#18030
b0 *TMR
#18511
b1 *TMR
#92591
bOutput pins should never be read *Error
#18519
b1 *B0
#18528
b1 *B2
#18528
b0 *B3
#18528
b0 *B4
#18536
b0 *TMR
#19011
b1 *TMR
#19022
b0 *B2
#19022
b1 *B3
#19023
b0 *B4
#19030
b0 *TMR
#19511
b1 *TMR
#19522
b0 *B2
#19523
b0 *B3
#19523
b1 *B4
#19530
b0 *TMR
#20011
b1 *TMR
#100091
bOutput pins should never be read *Error
#20019
b0 *B0
#20028
b1 *B2
#20028
b0 *B3
#20028
b0 *B4
#20036
b0 *TMR
#20511
b1 *TMR
#20522
b0 *B2
#20522
b1 *B3
#20523
b0 *B4
#20530
b0 *TMR
#21011
b1 *TMR
#21022
b0 *B2
#21023
b0 *B3
#21023
b1 *B4
#21030
b0 *TMR
#21511
b1 *TMR
#107591
bOutput pins should never be read *Error
#21519
b1 *B0
#21528
b1 *B2
#21528
b0 *B3
#21528
b0 *B4
#21536
b0 *TMR
#22011
b1 *TMR
#22022
b0 *B2
#22022
b1 *B3
#22023
b0 *B4
#22030
b0 *TMR
#22511
b1 *TMR
#22522
b0 *B2
#22523
b0 *B3
#22523
b1 *B4
#22530
b0 *TMR
#23011
b1 *TMR
#115091
bOutput pins should never be read *Error
#23019
b0 *B0
#23028
b1 *B2
#23028
b0 *B3
#23028
b0 *B4
#23036
b0 *TMR
#23511
b1 *TMR
#23522
b0 *B2
#23522
b1 *B3
#23523
b0 *B4
#23530
b0 *TMR
#24011
b1 *TMR
#24022
b0 *B2
#24023
b0 *B3
#24023
b1 *B4
#24030
b0 *TMR
#24511
b1 *TMR
#122591
bOutput pins should never be read *Error
#24519
b1 *B0
#24528
b1 *B2
#24528
b0 *B3
#24528
b0 *B4
#24536
b0 *TMR
#25011
b1 *TMR
#25022
b0 *B2
#25022
b1 *B3
#25023
b0 *B4
#25030
b0 *TMR
#25511
b1 *TMR
#25522
b0 *B2
#25523
b0 *B3
#25523
b1 *B4
#25530
b0 *TMR
#26011
b1 *TMR
#130091
bOutput pins should never be read *Error
#26019
b0 *B0
#26028
b1 *B2
#26028
b0 *B3
#26028
b0 *B4
#26036
b0 *TMR
#26511
b1 *TMR
#26522
b0 *B2
#26522
b1 *B3
#26523
b0 *B4
#26530
b0 *TMR
#27011
b1 *TMR
#27022
b0 *B2
#27023
b0 *B3
#27023
b1 *B4
#27030
b0 *TMR
#27039
b1 *A1
#27039
b1 *A1
#27339
b0 *A1
#27339
b0 *A1
#27511
b1 *TMR
#137591
bOutput pins should never be read *Error
#27519
b1 *B0
#27528
b1 *B2
#27528
b0 *B3
#27528
b0 *B4
#27536
b0 *TMR
#28011
b1 *TMR
#28022
b0 *B2
#28022
b1 *B3
#28023
b0 *B4
#28030
b0 *TMR
#28511
b1 *TMR
#28522
b0 *B2
